[1] GUI-NODE-ID = Dot11p1
[2] GUI-NODE-ID = Dot11p2
[3] GUI-NODE-ID = Dot11p3
[4] GUI-NODE-ID = Dot11p4
[5] GUI-NODE-ID = Dot11p5
[6] GUI-NODE-ID = Dot11p6
[7] GUI-NODE-ID = Dot11p7
[8] GUI-NODE-ID = Dot11p8
[9] GUI-NODE-ID = Dot11p9
[10] GUI-NODE-ID = Dot11p10
[11] GUI-NODE-ID = Dot11p11
[12] GUI-NODE-ID = Dot11p12
[13] GUI-NODE-ID = Dot11p13
[14] GUI-NODE-ID = Dot11p14
[15] GUI-NODE-ID = Dot11p15
[16] GUI-NODE-ID = Dot11p16
[17] GUI-NODE-ID = Dot11p17
[18] GUI-NODE-ID = Dot11p18
[19] GUI-NODE-ID = Dot11p19
[20] GUI-NODE-ID = Dot11p20
[21] GUI-NODE-ID = Dot11p21
[22] GUI-NODE-ID = Dot11p22
[23] GUI-NODE-ID = Dot11p23
[24] GUI-NODE-ID = Dot11p24
[25] GUI-NODE-ID = Dot11p25
[26] GUI-NODE-ID = Dot11p26
[27] GUI-NODE-ID = Dot11p27
[100000001] GUI-NODE-ID = Road1
[100000002] GUI-NODE-ID = Road2
[100000003] GUI-NODE-ID = Road3
[100000004] GUI-NODE-ID = Road4
[101000001] GUI-NODE-ID = Intersection1
[101000002] GUI-NODE-ID = Intersection2
[101000003] GUI-NODE-ID = Intersection3
[101000004] GUI-NODE-ID = Intersection4
[101000005] GUI-NODE-ID = Intersection5
